{
  "path": "/post",
  "body": {
    "accountNumber": "10010159833",
    "dateTime": "2020-11-29T09:55:45.520Z",
    "centsAmount": 30000,
    "currencyCode": "zar",
    "type": "card",
    "reference": "simulation",
    "card": {"id": "50363f6b9bd2c6e069e455ec0eefd78f21ea459cde6a76b814183fea7f5d2eee"},
    "merchant": {
      "category": {"code": "5462", "key": "bakeries", "name": "Bakeries" },
      "name": "Woolworths",
      "city": "Cape Town",
      "country": {"code": "ZA", "alpha3": "ZAF", "name": "South Africa"}
    }
  }
}
